<?xml version="1.0" encoding="UTF-8" standalone="no"?>
<!-- Created with Inkscape (http://www.inkscape.org/) -->

<svg
   xmlns:dc="http://purl.org/dc/elements/1.1/"
   xmlns:cc="http://creativecommons.org/ns#"
   xmlns:rdf="http://www.w3.org/1999/02/22-rdf-syntax-ns#"
   xmlns:svg="http://www.w3.org/2000/svg"
   xmlns="http://www.w3.org/2000/svg"
   xmlns:sodipodi="http://sodipodi.sourceforge.net/DTD/sodipodi-0.dtd"
   xmlns:inkscape="http://www.inkscape.org/namespaces/inkscape"
   width="64mm"
   height="64mm"
   viewBox="0 0 64 64"
   version="1.1"
   id="svg8"
   inkscape:version="0.92.4 (5da689c313, 2019-01-14)"
   sodipodi:docname="cursor.svg"
   inkscape:export-filename="C:\Users\knk takuma\Documents\Unity_3DGameProject(vsAI)\Assets\d)Material\cursor.png"
   inkscape:export-xdpi="95.900002"
   inkscape:export-ydpi="95.900002">
  <defs
     id="defs2" />
  <sodipodi:namedview
     id="base"
     pagecolor="#ffffff"
     bordercolor="#666666"
     borderopacity="1.0"
     inkscape:pageopacity="0.0"
     inkscape:pageshadow="2"
     inkscape:zoom="2.8"
     inkscape:cx="171.53911"
     inkscape:cy="99.180881"
     inkscape:document-units="mm"
     inkscape:current-layer="layer1"
     showgrid="false"
     inkscape:pagecheckerboard="true"
     inkscape:window-width="1920"
     inkscape:window-height="1057"
     inkscape:window-x="-8"
     inkscape:window-y="-8"
     inkscape:window-maximized="1" />
  <metadata
     id="metadata5">
    <rdf:RDF>
      <cc:Work
         rdf:about="">
        <dc:format>image/svg+xml</dc:format>
        <dc:type
           rdf:resource="http://purl.org/dc/dcmitype/StillImage" />
        <dc:title></dc:title>
      </cc:Work>
    </rdf:RDF>
  </metadata>
  <g
     inkscape:label="レイヤー 1"
     inkscape:groupmode="layer"
     id="layer1"
     transform="translate(0,-233)">
    <path
       sodipodi:type="star"
       style="fill:none;fill-opacity:0.50196078;stroke:#ffffff;stroke-width:12;stroke-linecap:butt;stroke-linejoin:bevel;stroke-miterlimit:2;stroke-dasharray:none;stroke-dashoffset:0;stroke-opacity:1;paint-order:normal"
       id="path827"
       sodipodi:sides="3"
       sodipodi:cx="17.008928"
       sodipodi:cy="249.09152"
       sodipodi:r1="0.7792179"
       sodipodi:r2="0.38960895"
       sodipodi:arg1="-1.3258177"
       sodipodi:arg2="-0.27862011"
       inkscape:flatsided="false"
       inkscape:rounded="0"
       inkscape:randomized="0"
       d="m 17.197916,248.33557 0.185596,0.6488 0.185596,0.6488 -0.654674,-0.16367 -0.654674,-0.16367 0.469078,-0.48513 z"
       inkscape:transform-center-x="0.094494261"
       inkscape:transform-center-y="-0.10715405"
       inkscape:export-filename="C:\Users\knk takuma\Documents\Unity_3DGameProject(vsAI)\Assets\d)Material\cursor.png"
       inkscape:export-xdpi="95.900002"
       inkscape:export-ydpi="95.900002" />
  </g>
</svg>
