<?xml version="1.0" encoding="UTF-8" standalone="no"?>
<!-- Created with Inkscape (http://www.inkscape.org/) -->

<svg
   xmlns:dc="http://purl.org/dc/elements/1.1/"
   xmlns:cc="http://creativecommons.org/ns#"
   xmlns:rdf="http://www.w3.org/1999/02/22-rdf-syntax-ns#"
   xmlns:svg="http://www.w3.org/2000/svg"
   xmlns="http://www.w3.org/2000/svg"
   xmlns:sodipodi="http://sodipodi.sourceforge.net/DTD/sodipodi-0.dtd"
   xmlns:inkscape="http://www.inkscape.org/namespaces/inkscape"
   width="512mm"
   height="512mm"
   viewBox="0 0 512 512"
   version="1.1"
   id="svg8"
   inkscape:export-filename="C:\Users\knk takuma\Documents\Unity_3DGameProject(vsAI)\Assets\d)Material\Grid_c.png"
   inkscape:export-xdpi="95.900002"
   inkscape:export-ydpi="95.900002"
   inkscape:version="0.92.4 (5da689c313, 2019-01-14)"
   sodipodi:docname="Grid_icon.svg">
  <defs
     id="defs2" />
  <sodipodi:namedview
     id="base"
     pagecolor="#ffffff"
     bordercolor="#666666"
     borderopacity="1.0"
     inkscape:pageopacity="0.0"
     inkscape:pageshadow="2"
     inkscape:zoom="0.24748737"
     inkscape:cx="615.44686"
     inkscape:cy="924.02809"
     inkscape:document-units="mm"
     inkscape:current-layer="layer1"
     showgrid="false"
     inkscape:pagecheckerboard="true"
     inkscape:window-width="1920"
     inkscape:window-height="1057"
     inkscape:window-x="-8"
     inkscape:window-y="-8"
     inkscape:window-maximized="1"
     inkscape:snap-global="true">
    <inkscape:grid
       type="xygrid"
       id="grid819" />
  </sodipodi:namedview>
  <metadata
     id="metadata5">
    <rdf:RDF>
      <cc:Work
         rdf:about="">
        <dc:format>image/svg+xml</dc:format>
        <dc:type
           rdf:resource="http://purl.org/dc/dcmitype/StillImage" />
        <dc:title></dc:title>
      </cc:Work>
    </rdf:RDF>
  </metadata>
  <g
     inkscape:label="レイヤー 1"
     inkscape:groupmode="layer"
     id="layer1"
     transform="translate(0,215)">
    <rect
       style="fill:#000000;fill-opacity:1;stroke:#ffffff;stroke-width:8;stroke-linecap:round;stroke-linejoin:round;stroke-miterlimit:4;stroke-dasharray:none;stroke-opacity:0.97115383;paint-order:stroke fill markers"
       id="rect815"
       width="514.22656"
       height="514.22656"
       x="4"
       y="-221.22656" />
    <rect
       style="fill:#000000;fill-opacity:1;stroke:#ffffff;stroke-width:28.93314934;stroke-linecap:round;stroke-linejoin:bevel;stroke-miterlimit:4;stroke-dasharray:none;stroke-opacity:1;paint-order:stroke fill markers"
       id="rect817"
       width="400"
       height="400"
       x="57.45826"
       y="-164.69981" />
    <rect
       y="-142.77719"
       x="41.58326"
       height="351.61905"
       width="434.01785"
       id="rect828"
       style="fill:#000000;fill-opacity:1;stroke:none;stroke-width:28.25697899;stroke-linecap:round;stroke-linejoin:bevel;stroke-miterlimit:4;stroke-dasharray:none;stroke-opacity:1;paint-order:stroke fill markers" />
    <rect
       y="-179.81886"
       x="82.404686"
       height="430.2381"
       width="353.8869"
       id="rect830"
       style="fill:#000000;fill-opacity:1;stroke:none;stroke-width:28.22424889;stroke-linecap:round;stroke-linejoin:bevel;stroke-miterlimit:4;stroke-dasharray:none;stroke-opacity:1;paint-order:stroke fill markers" />
    <rect
       y="-200.94897"
       x="23.552565"
       height="470"
       width="470"
       id="rect832"
       style="fill:none;fill-opacity:1;stroke:#ffffff;stroke-width:15.0744648;stroke-linecap:round;stroke-linejoin:bevel;stroke-miterlimit:4;stroke-dasharray:none;stroke-opacity:1;paint-order:stroke fill markers" />
    <rect
       style="fill:#000000;fill-opacity:1;stroke:none;stroke-width:15;stroke-linecap:square;stroke-linejoin:bevel;stroke-miterlimit:4;stroke-dasharray:none;stroke-dashoffset:0;stroke-opacity:0.50196078;paint-order:normal"
       id="rect834"
       width="74.083321"
       height="30.238079"
       x="8.3213682"
       y="-220.64014" />
    <rect
       y="3.9368477"
       x="142.77719"
       height="30.238079"
       width="74.083321"
       id="rect838"
       style="fill:#000000;fill-opacity:1;stroke:none;stroke-width:15;stroke-linecap:square;stroke-linejoin:bevel;stroke-miterlimit:4;stroke-dasharray:none;stroke-dashoffset:0;stroke-opacity:0.50196078;paint-order:normal"
       transform="rotate(-90)" />
    <rect
       y="4.6927943"
       x="207.22678"
       height="30.238079"
       width="74.083321"
       id="rect840"
       style="fill:#000000;fill-opacity:1;stroke:none;stroke-width:15;stroke-linecap:square;stroke-linejoin:bevel;stroke-miterlimit:4;stroke-dasharray:none;stroke-dashoffset:0;stroke-opacity:0.50196078;paint-order:normal"
       transform="matrix(0,1,1,0,0,0)" />
    <rect
       style="fill:#000000;fill-opacity:1;stroke:none;stroke-width:15;stroke-linecap:square;stroke-linejoin:bevel;stroke-miterlimit:4;stroke-dasharray:none;stroke-dashoffset:0;stroke-opacity:0.50196078;paint-order:normal"
       id="rect842"
       width="74.083321"
       height="30.238079"
       x="-83.160637"
       y="254.85194"
       transform="scale(-1,1)" />
    <rect
       style="fill:#000000;fill-opacity:1;stroke:none;stroke-width:15;stroke-linecap:square;stroke-linejoin:bevel;stroke-miterlimit:4;stroke-dasharray:none;stroke-dashoffset:0;stroke-opacity:0.50196078;paint-order:normal"
       id="rect844"
       width="74.083321"
       height="30.238079"
       x="207.27516"
       y="-512.93481"
       transform="rotate(90)" />
    <rect
       y="254.90019"
       x="434.46582"
       height="30.238079"
       width="74.083321"
       id="rect846"
       style="fill:#000000;fill-opacity:1;stroke:none;stroke-width:15;stroke-linecap:square;stroke-linejoin:bevel;stroke-miterlimit:4;stroke-dasharray:none;stroke-dashoffset:0;stroke-opacity:0.50196078;paint-order:normal" />
    <rect
       y="-218.58076"
       x="-507.64307"
       height="30.238079"
       width="74.083321"
       id="rect848"
       style="fill:#000000;fill-opacity:1;stroke:none;stroke-width:15;stroke-linecap:square;stroke-linejoin:bevel;stroke-miterlimit:4;stroke-dasharray:none;stroke-dashoffset:0;stroke-opacity:0.50196078;paint-order:normal"
       transform="scale(-1,1)" />
    <rect
       style="fill:#000000;fill-opacity:1;stroke:none;stroke-width:15;stroke-linecap:square;stroke-linejoin:bevel;stroke-miterlimit:4;stroke-dasharray:none;stroke-dashoffset:0;stroke-opacity:0.50196078;paint-order:normal"
       id="rect850"
       width="74.083321"
       height="30.238079"
       x="140.71782"
       y="-512.02759"
       transform="matrix(0,-1,-1,0,0,0)" />
  </g>
</svg>
